<?xml version="1.0" encoding="utf-8"?>
<!-- Generator: Adobe Illustrator 19.2.1, SVG Export Plug-In . SVG Version: 6.00 Build 0)  -->
<svg version="1.1" id="Layer_1" xmlns="http://www.w3.org/2000/svg" xmlns:xlink="http://www.w3.org/1999/xlink" x="0px" y="0px"
	 viewBox="0 0 18 18" style="enable-background:new 0 0 18 18;" xml:space="preserve">
<style type="text/css">
	.st0{fill:#FFFFFF;}
</style>
<title>tag</title>
<path class="st0" d="M16.7,8.5L9.5,1.3C9.3,1.1,9.1,1,8.8,1H2C1.5,1,1,1.5,1,2v6.8c0,0.3,0.1,0.5,0.3,0.7l7.2,7.2
	C8.7,16.9,9,17,9.2,17s0.5-0.1,0.7-0.3l6.7-6.7C17.1,9.6,17.1,8.9,16.7,8.5z M14.2,9.6l-4.7,4.7c-0.2,0.2-0.5,0.2-0.7,0L3,8.4V3.5
	C3,3.2,3.2,3,3.5,3h4.9l5.9,5.9C14.4,9.1,14.4,9.4,14.2,9.6L14.2,9.6z"/>
<path class="st0" d="M8,6.5C8,7.3,7.3,8,6.5,8S5,7.3,5,6.5S5.7,5,6.5,5S8,5.7,8,6.5z"/>
</svg>
